{
    "schema_studentLogin":{
        "$schema": "https://json-schema.org/draft/2019-09/schema",
        "$id": "http://example.com/example.json",
        "type": "object",
        "default": {},
        "title": "Root Schema",
        "required": [
            "accessToken",
            "refreshToken"
        ],
        "examples": [{
            "accessToken": "eyJhbGciOiJIUzUxMiJ9.eyJzdWIiOiI2NjA2YzVjMS01OTJlLTRiYjQtYTAyZi1kMWY1MDljMmUzOWUiLCJpYXQiOjE2NTg3NjM5NDYsImV4cCI6MTY1ODg1MDM0Nn0.yidF_yzcdytYm1VmZIyzCUnFenYj7lBXietJ80ljNq6bhoj0B3ymoiuUaatbZlAbFxEOP05Imw5GSE20Tp6HGg",
            "refreshToken": "eyJhbGciOiJIUzUxMiJ9.eyJzdWIiOiI2NjA2YzVjMS01OTJlLTRiYjQtYTAyZi1kMWY1MDljMmUzOWUiLCJpYXQiOjE2NTg3NjM5NDYsImV4cCI6MTY2MTM1NTk0Nn0.u0sv52rFm0CK7OEftlHAT2-SIPa7xlT0LNtR-3aiplCMiqhodo1XO7AqBSg58PHJkOXJAsox0s3HFuVwXvxdWg"
        }]
    },
    "schema_userInfo":{
        "$schema": "https://json-schema.org/draft/2019-09/schema",
        "$id": "http://example.com/example.json",
        "type": "object",
        "default": {},
        "title": "Root Schema",
        "required": [
            "id",
            "email",
            "nickname",
            "role",
            "avatar",
            "emailVerified"
        ],
        "examples": [{
            "id": "6606c5c1-592e-4bb4-a02f-d1f509c2e39e",
            "email": "vladik_sexy@i.ua",
            "nickname": null,
            "role": {
                "name": "AUTHOR"
            },
            "avatar": null,
            "emailVerified": true
        }]
    }
}